<?xml version="1.0" standalone="no"?>
<!DOCTYPE svg PUBLIC "-//W3C//DTD SVG 1.1//EN" "http://www.w3.org/Graphics/SVG/1.1/DTD/svg11.dtd">

<svg width="800" height="600" version="1.1" xmlns="http://www.w3.org/2000/svg">
    <ellipse stroke="black" stroke-width="1" fill="none" cx="74.5" cy="60.5" rx="30" ry="30"/>
    <text x="49.5" y="66.5" font-family="Times New Roman" font-size="20">1,2,7</text>
    <ellipse stroke="black" stroke-width="1" fill="none" cx="74.5" cy="246.5" rx="30" ry="30"/>
    <text x="20.5" y="252.5" font-family="Times New Roman" font-size="20">1,2,3,5,7,8</text>
    <ellipse stroke="black" stroke-width="1" fill="none" cx="74.5" cy="246.5" rx="24" ry="24"/>
    <ellipse stroke="black" stroke-width="1" fill="none" cx="341.5" cy="413.5" rx="30" ry="30"/>
    <text x="306.5" y="419.5" font-family="Times New Roman" font-size="20">2,4,6,7</text>
    <ellipse stroke="black" stroke-width="1" fill="none" cx="99.5" cy="433.5" rx="30" ry="30"/>
    <text x="36.5" y="439.5" font-family="Times New Roman" font-size="20">1,2,3,5,6,7,8</text>
    <ellipse stroke="black" stroke-width="1" fill="none" cx="99.5" cy="433.5" rx="24" ry="24"/>
    <ellipse stroke="black" stroke-width="1" fill="none" cx="420.5" cy="60.5" rx="30" ry="30"/>
    <text x="414.5" y="66.5" font-family="Times New Roman" font-size="20">4</text>
    <ellipse stroke="black" stroke-width="1" fill="none" cx="617.5" cy="262.5" rx="30" ry="30"/>
    <text x="592.5" y="268.5" font-family="Times New Roman" font-size="20">3,5,8</text>
    <ellipse stroke="black" stroke-width="1" fill="none" cx="617.5" cy="262.5" rx="24" ry="24"/>
    <ellipse stroke="black" stroke-width="1" fill="none" cx="420.5" cy="262.5" rx="30" ry="30"/>
    <text x="404.5" y="268.5" font-family="Times New Roman" font-size="20">2,7</text>
    <ellipse stroke="black" stroke-width="1" fill="none" cx="660.5" cy="365.5" rx="30" ry="30"/>
    <text x="644.5" y="371.5" font-family="Times New Roman" font-size="20">4,6</text>
    <ellipse stroke="black" stroke-width="1" fill="none" cx="566.5" cy="493.5" rx="30" ry="30"/>
    <text x="541.5" y="499.5" font-family="Times New Roman" font-size="20">2,4,7</text>
    <ellipse stroke="black" stroke-width="1" fill="none" cx="617.5" cy="60.5" rx="30" ry="30"/>
    <text x="592.5" y="66.5" font-family="Times New Roman" font-size="20">2,6,7</text>
    <ellipse stroke="black" stroke-width="1" fill="none" cx="762.5" cy="319.5" rx="30" ry="30"/>
    <text x="749.5" y="325.5" font-family="Times New Roman" font-size="20">{}</text>
    <ellipse stroke="black" stroke-width="1" fill="none" cx="238.5" cy="60.5" rx="30" ry="30"/>
    <text x="225.5" y="66.5" font-family="Times New Roman" font-size="20">{}</text>
    <ellipse stroke="black" stroke-width="1" fill="none" cx="307.5" cy="209.5" rx="30" ry="30"/>
    <text x="294.5" y="215.5" font-family="Times New Roman" font-size="20">{}</text>
    <polygon stroke="black" stroke-width="1" points="26.5,60.5 44.5,60.5"/>
    <polygon fill="black" stroke-width="1" points="44.5,60.5 36.5,55.5 36.5,65.5"/>
    <polygon stroke="black" stroke-width="1" points="74.5,90.5 74.5,216.5"/>
    <polygon fill="black" stroke-width="1" points="74.5,216.5 79.5,208.5 69.5,208.5"/>
    <text x="56.5" y="159.5" font-family="Times New Roman" font-size="20">b</text>
    <polygon stroke="black" stroke-width="1" points="99.935,262.409 316.065,397.591"/>
    <polygon fill="black" stroke-width="1" points="316.065,397.591 311.934,389.11 306.631,397.588"/>
    <text x="190.5" y="350.5" font-family="Times New Roman" font-size="20">a</text>
    <polygon stroke="black" stroke-width="1" points="78.475,276.235 95.525,403.765"/>
    <polygon fill="black" stroke-width="1" points="95.525,403.765 99.42,395.173 89.509,396.498"/>
    <text x="67.5" y="347.5" font-family="Times New Roman" font-size="20">b</text>
    <path stroke="black" stroke-width="1" fill="none" d="M 395.809,77.538 A 1642.083,1642.083 0 0 1 102.332,235.303"/>
    <polygon fill="black" stroke-width="1" points="395.809,77.538 386.381,77.881 391.985,86.163"/>
    <text x="258.5" y="184.5" font-family="Times New Roman" font-size="20">c</text>
    <polygon stroke="black" stroke-width="1" points="367.819,399.101 591.181,276.899"/>
    <polygon fill="black" stroke-width="1" points="591.181,276.899 581.763,276.352 586.563,285.125"/>
    <text x="484.5" y="359.5" font-family="Times New Roman" font-size="20">b</text>
    <polygon stroke="black" stroke-width="1" points="355.407,386.918 406.593,289.082"/>
    <polygon fill="black" stroke-width="1" points="406.593,289.082 398.454,293.852 407.315,298.488"/>
    <text x="387.5" y="355.5" font-family="Times New Roman" font-size="20">c</text>
    <polygon stroke="black" stroke-width="1" points="129.398,431.029 311.602,415.971"/>
    <polygon fill="black" stroke-width="1" points="311.602,415.971 303.217,411.647 304.041,421.613"/>
    <text x="215.5" y="445.5" font-family="Times New Roman" font-size="20">a</text>
    <path stroke="black" stroke-width="1" fill="none" d="M 101.65,463.305 A 22.5,22.5 0 1 1 77.15,453.336"/>
    <text x="56.5" y="517.5" font-family="Times New Roman" font-size="20">b</text>
    <polygon fill="black" stroke-width="1" points="77.15,453.336 67.716,453.312 72.995,461.806"/>
    <path stroke="black" stroke-width="1" fill="none" d="M 536.52,494.579 A 1353.279,1353.279 0 0 1 128.233,442.123"/>
    <polygon fill="black" stroke-width="1" points="536.52,494.579 528.398,489.78 528.647,499.777"/>
    <text x="321.5" y="505.5" font-family="Times New Roman" font-size="20">c</text>
    <polygon stroke="black" stroke-width="1" points="420.5,90.5 420.5,232.5"/>
    <polygon fill="black" stroke-width="1" points="420.5,232.5 425.5,224.5 415.5,224.5"/>
    <text x="404.5" y="167.5" font-family="Times New Roman" font-size="20">c</text>
    <path stroke="black" stroke-width="1" fill="none" d="M 636.257,285.849 A 149.963,149.963 0 0 1 657.087,335.745"/>
    <polygon fill="black" stroke-width="1" points="657.087,335.745 660.273,326.865 650.501,328.991"/>
    <text x="656.5" y="306.5" font-family="Times New Roman" font-size="20">a</text>
    <path stroke="black" stroke-width="1" fill="none" d="M 610.108,233.434 A 351.116,351.116 0 0 1 610.108,89.566"/>
    <polygon fill="black" stroke-width="1" points="610.108,89.566 603.575,96.371 613.363,98.42"/>
    <text x="584.5" y="167.5" font-family="Times New Roman" font-size="20">b</text>
    <path stroke="black" stroke-width="1" fill="none" d="M 592.55,245.847 A 608.315,608.315 0 0 1 436.522,85.86"/>
    <polygon fill="black" stroke-width="1" points="436.522,85.86 436.801,95.289 445.121,89.741"/>
    <text x="490.5" y="193.5" font-family="Times New Roman" font-size="20">c</text>
    <polygon stroke="black" stroke-width="1" points="450.5,262.5 587.5,262.5"/>
    <polygon fill="black" stroke-width="1" points="587.5,262.5 579.5,257.5 579.5,267.5"/>
    <text x="512.5" y="283.5" font-family="Times New Roman" font-size="20">b</text>
    <path stroke="black" stroke-width="1" fill="none" d="M 631.871,356.537 A 1136.263,1136.263 0 0 1 446.72,277.076"/>
    <polygon fill="black" stroke-width="1" points="446.72,277.076 451.391,285.272 456.134,276.469"/>
    <text x="521.5" y="342.5" font-family="Times New Roman" font-size="20">c</text>
    <polygon stroke="black" stroke-width="1" points="572.968,464.205 611.032,291.795"/>
    <polygon fill="black" stroke-width="1" points="611.032,291.795 604.425,298.528 614.19,300.684"/>
    <text x="599.5" y="387.5" font-family="Times New Roman" font-size="20">b</text>
    <path stroke="black" stroke-width="1" fill="none" d="M 547.547,470.247 A 1015.158,1015.158 0 0 1 433.37,289.598"/>
    <polygon fill="black" stroke-width="1" points="433.37,289.598 432.425,298.984 441.393,294.561"/>
    <text x="468.5" y="401.5" font-family="Times New Roman" font-size="20">c</text>
    <path stroke="black" stroke-width="1" fill="none" d="M 624.001,89.78 A 398.697,398.697 0 0 1 624.001,233.22"/>
    <polygon fill="black" stroke-width="1" points="624.001,233.22 630.359,226.25 620.522,224.451"/>
    <text x="635.5" y="167.5" font-family="Times New Roman" font-size="20">b</text>
    <path stroke="black" stroke-width="1" fill="none" d="M 432.357,234.952 A 355.018,355.018 0 0 1 590.258,73.044"/>
    <polygon fill="black" stroke-width="1" points="432.357,234.952 440.333,229.913 431.322,225.575"/>
    <text x="481.5" y="132.5" font-family="Times New Roman" font-size="20">c</text>
    <path stroke="black" stroke-width="1" fill="none" d="M 641.508,78.472 A 332.301,332.301 0 0 1 759.729,289.638"/>
    <polygon fill="black" stroke-width="1" points="759.729,289.638 763.584,281.028 753.679,282.4"/>
    <text x="727.5" y="166.5" font-family="Times New Roman" font-size="20">a</text>
    <polygon stroke="black" stroke-width="1" points="687.848,353.167 735.152,331.833"/>
    <polygon fill="black" stroke-width="1" points="735.152,331.833 725.804,330.564 729.915,339.68"/>
    <text x="675.5" y="333.5" font-family="Times New Roman" font-size="20">a,b</text>
    <polygon stroke="black" stroke-width="1" points="104.5,60.5 208.5,60.5"/>
    <polygon fill="black" stroke-width="1" points="208.5,60.5 200.5,55.5 200.5,65.5"/>
    <text x="142.5" y="81.5" font-family="Times New Roman" font-size="20">a,c</text>
    <path stroke="black" stroke-width="1" fill="none" d="M 320.255,392.331 A 354.285,354.285 0 0 1 231.973,89.772"/>
    <polygon fill="black" stroke-width="1" points="231.973,89.772 225.642,96.766 235.486,98.528"/>
    <text x="220.5" y="263.5" font-family="Times New Roman" font-size="20">a</text>
    <polygon stroke="black" stroke-width="1" points="390.5,60.5 268.5,60.5"/>
    <polygon fill="black" stroke-width="1" points="268.5,60.5 276.5,65.5 276.5,55.5"/>
    <text x="314.5" y="51.5" font-family="Times New Roman" font-size="20">a,b</text>
    <polygon stroke="black" stroke-width="1" points="393.339,249.761 334.661,222.239"/>
    <polygon fill="black" stroke-width="1" points="334.661,222.239 339.781,230.163 344.027,221.109"/>
    <text x="368.5" y="226.5" font-family="Times New Roman" font-size="20">a,c</text>
    <path stroke="black" stroke-width="1" fill="none" d="M 760.897,349.418 A 170.104,170.104 0 0 1 596.397,495.454"/>
    <polygon fill="black" stroke-width="1" points="760.897,349.418 754.818,356.632 764.717,358.044"/>
    <text x="710.5" y="473.5" font-family="Times New Roman" font-size="20">a</text>
</svg>

